build/sim_output.txt
VCD info: dumpfile build/cpu_dump.vcd opened for output.
t=45000  WB  PC=1  op=1001  R0=0 R1=0 R2=0 R3=0 R4=0 R5=0 R6=0 R7=0
t=85000  WB  PC=2  op=1001  R0=0 R1=5 R2=0 R3=0 R4=0 R5=0 R6=0 R7=0
t=125000  WB  PC=3  op=1011  R0=0 R1=5 R2=5 R3=0 R4=0 R5=0 R6=0 R7=0
t=165000  WB  PC=5  op=1001  R0=0 R1=5 R2=5 R3=0 R4=0 R5=0 R6=0 R7=0
t=205000  WB  PC=6  op=0111  R0=0 R1=5 R2=5 R3=0 R4=9 R5=0 R6=0 R7=0
t=245000  WB  PC=7  op=0110  R0=0 R1=5 R2=5 R3=0 R4=9 R5=0 R6=0 R7=0
t=285000  WB  PC=8  op=1001  R0=0 R1=5 R2=5 R3=0 R4=9 R5=9 R6=0 R7=0
t=325000  WB  PC=9  op=0010  R0=0 R1=5 R2=5 R3=0 R4=9 R5=9 R6=1 R7=0
t=365000  WB  PC=10  op=1101  R0=0 R1=5 R2=5 R3=0 R4=9 R5=9 R6=252 R7=0
t=405000  WB  PC=9  op=0010  R0=0 R1=5 R2=5 R3=0 R4=9 R5=9 R6=252 R7=0
t=445000  WB  PC=10  op=1101  R0=0 R1=5 R2=5 R3=0 R4=9 R5=9 R6=247 R7=0
t=485000  WB  PC=9  op=0010  R0=0 R1=5 R2=5 R3=0 R4=9 R5=9 R6=247 R7=0
t=525000  WB  PC=10  op=1101  R0=0 R1=5 R2=5 R3=0 R4=9 R5=9 R6=242 R7=0
t=565000  WB  PC=9  op=0010  R0=0 R1=5 R2=5 R3=0 R4=9 R5=9 R6=242 R7=0
t=605000  WB  PC=10  op=1101  R0=0 R1=5 R2=5 R3=0 R4=9 R5=9 R6=237 R7=0
t=645000  WB  PC=9  op=0010  R0=0 R1=5 R2=5 R3=0 R4=9 R5=9 R6=237 R7=0
t=685000  WB  PC=10  op=1101  R0=0 R1=5 R2=5 R3=0 R4=9 R5=9 R6=232 R7=0
t=725000  WB  PC=9  op=0010  R0=0 R1=5 R2=5 R3=0 R4=9 R5=9 R6=232 R7=0
t=765000  WB  PC=10  op=1101  R0=0 R1=5 R2=5 R3=0 R4=9 R5=9 R6=227 R7=0
t=805000  WB  PC=9  op=0010  R0=0 R1=5 R2=5 R3=0 R4=9 R5=9 R6=227 R7=0
t=845000  WB  PC=10  op=1101  R0=0 R1=5 R2=5 R3=0 R4=9 R5=9 R6=222 R7=0
t=885000  WB  PC=9  op=0010  R0=0 R1=5 R2=5 R3=0 R4=9 R5=9 R6=222 R7=0
t=925000  WB  PC=10  op=1101  R0=0 R1=5 R2=5 R3=0 R4=9 R5=9 R6=217 R7=0
t=965000  WB  PC=9  op=0010  R0=0 R1=5 R2=5 R3=0 R4=9 R5=9 R6=217 R7=0
t=1005000  WB  PC=10  op=1101  R0=0 R1=5 R2=5 R3=0 R4=9 R5=9 R6=212 R7=0
t=1045000  WB  PC=9  op=0010  R0=0 R1=5 R2=5 R3=0 R4=9 R5=9 R6=212 R7=0
t=1085000  WB  PC=10  op=1101  R0=0 R1=5 R2=5 R3=0 R4=9 R5=9 R6=207 R7=0
t=1125000  WB  PC=9  op=0010  R0=0 R1=5 R2=5 R3=0 R4=9 R5=9 R6=207 R7=0
t=1165000  WB  PC=10  op=1101  R0=0 R1=5 R2=5 R3=0 R4=9 R5=9 R6=202 R7=0
t=1205000  WB  PC=9  op=0010  R0=0 R1=5 R2=5 R3=0 R4=9 R5=9 R6=202 R7=0
t=1245000  WB  PC=10  op=1101  R0=0 R1=5 R2=5 R3=0 R4=9 R5=9 R6=197 R7=0
t=1285000  WB  PC=9  op=0010  R0=0 R1=5 R2=5 R3=0 R4=9 R5=9 R6=197 R7=0
t=1325000  WB  PC=10  op=1101  R0=0 R1=5 R2=5 R3=0 R4=9 R5=9 R6=192 R7=0
t=1365000  WB  PC=9  op=0010  R0=0 R1=5 R2=5 R3=0 R4=9 R5=9 R6=192 R7=0
t=1405000  WB  PC=10  op=1101  R0=0 R1=5 R2=5 R3=0 R4=9 R5=9 R6=187 R7=0
t=1445000  WB  PC=9  op=0010  R0=0 R1=5 R2=5 R3=0 R4=9 R5=9 R6=187 R7=0
t=1485000  WB  PC=10  op=1101  R0=0 R1=5 R2=5 R3=0 R4=9 R5=9 R6=182 R7=0
t=1525000  WB  PC=9  op=0010  R0=0 R1=5 R2=5 R3=0 R4=9 R5=9 R6=182 R7=0
t=1565000  WB  PC=10  op=1101  R0=0 R1=5 R2=5 R3=0 R4=9 R5=9 R6=177 R7=0
t=1605000  WB  PC=9  op=0010  R0=0 R1=5 R2=5 R3=0 R4=9 R5=9 R6=177 R7=0
t=1645000  WB  PC=10  op=1101  R0=0 R1=5 R2=5 R3=0 R4=9 R5=9 R6=172 R7=0
t=1685000  WB  PC=9  op=0010  R0=0 R1=5 R2=5 R3=0 R4=9 R5=9 R6=172 R7=0
t=1725000  WB  PC=10  op=1101  R0=0 R1=5 R2=5 R3=0 R4=9 R5=9 R6=167 R7=0
t=1765000  WB  PC=9  op=0010  R0=0 R1=5 R2=5 R3=0 R4=9 R5=9 R6=167 R7=0
t=1805000  WB  PC=10  op=1101  R0=0 R1=5 R2=5 R3=0 R4=9 R5=9 R6=162 R7=0
t=1845000  WB  PC=9  op=0010  R0=0 R1=5 R2=5 R3=0 R4=9 R5=9 R6=162 R7=0
t=1885000  WB  PC=10  op=1101  R0=0 R1=5 R2=5 R3=0 R4=9 R5=9 R6=157 R7=0
t=1925000  WB  PC=9  op=0010  R0=0 R1=5 R2=5 R3=0 R4=9 R5=9 R6=157 R7=0
t=1965000  WB  PC=10  op=1101  R0=0 R1=5 R2=5 R3=0 R4=9 R5=9 R6=152 R7=0
t=2005000  WB  PC=9  op=0010  R0=0 R1=5 R2=5 R3=0 R4=9 R5=9 R6=152 R7=0
t=2045000  WB  PC=10  op=1101  R0=0 R1=5 R2=5 R3=0 R4=9 R5=9 R6=147 R7=0
t=2085000  WB  PC=9  op=0010  R0=0 R1=5 R2=5 R3=0 R4=9 R5=9 R6=147 R7=0
t=2125000  WB  PC=10  op=1101  R0=0 R1=5 R2=5 R3=0 R4=9 R5=9 R6=142 R7=0
t=2165000  WB  PC=9  op=0010  R0=0 R1=5 R2=5 R3=0 R4=9 R5=9 R6=142 R7=0
t=2205000  WB  PC=10  op=1101  R0=0 R1=5 R2=5 R3=0 R4=9 R5=9 R6=137 R7=0
t=2245000  WB  PC=9  op=0010  R0=0 R1=5 R2=5 R3=0 R4=9 R5=9 R6=137 R7=0
